<svg width="34" height="34" viewBox="0 0 34 34" fill="none" xmlns="http://www.w3.org/2000/svg">
<mask id="path-1-outside-1_1_1009" maskUnits="userSpaceOnUse" x="0" y="0" width="34" height="34" fill="black">
<rect fill="white" width="34" height="34"/>
<path fill-rule="evenodd" clip-rule="evenodd" d="M31.5 17C31.5 25.0081 25.0081 31.5 17 31.5C8.99187 31.5 2.5 25.0081 2.5 17C2.5 8.99187 8.99187 2.5 17 2.5C25.0081 2.5 31.5 8.99187 31.5 17ZM33 17C33 25.8366 25.8366 33 17 33C8.16344 33 1 25.8366 1 17C1 8.16344 8.16344 1 17 1C25.8366 1 33 8.16344 33 17ZM7 17.6666C7 17.5727 7.01945 17.4832 7.05454 17.4021C7.08179 17.339 7.11924 17.2793 7.16689 17.2254C7.17701 17.214 7.18751 17.2029 7.19838 17.1921L11.8619 12.5286C12.1223 12.2682 12.5444 12.2682 12.8047 12.5286C13.0651 12.7889 13.0651 13.2111 12.8047 13.4714L9.27616 17H27C27.3682 17 27.6667 17.2985 27.6667 17.6666C27.6667 18.0348 27.3682 18.3333 27 18.3333H9.27612L12.8047 21.8619C13.0651 22.1223 13.0651 22.5444 12.8047 22.8047C12.5444 23.0651 12.1223 23.0651 11.8619 22.8047L7.19526 18.1381C7.1288 18.0716 7.0793 17.9946 7.04677 17.9124C7.01659 17.8364 7 17.7534 7 17.6666Z"/>
</mask>
<path fill-rule="evenodd" clip-rule="evenodd" d="M31.5 17C31.5 25.0081 25.0081 31.5 17 31.5C8.99187 31.5 2.5 25.0081 2.5 17C2.5 8.99187 8.99187 2.5 17 2.5C25.0081 2.5 31.5 8.99187 31.5 17ZM33 17C33 25.8366 25.8366 33 17 33C8.16344 33 1 25.8366 1 17C1 8.16344 8.16344 1 17 1C25.8366 1 33 8.16344 33 17ZM7 17.6666C7 17.5727 7.01945 17.4832 7.05454 17.4021C7.08179 17.339 7.11924 17.2793 7.16689 17.2254C7.17701 17.214 7.18751 17.2029 7.19838 17.1921L11.8619 12.5286C12.1223 12.2682 12.5444 12.2682 12.8047 12.5286C13.0651 12.7889 13.0651 13.2111 12.8047 13.4714L9.27616 17H27C27.3682 17 27.6667 17.2985 27.6667 17.6666C27.6667 18.0348 27.3682 18.3333 27 18.3333H9.27612L12.8047 21.8619C13.0651 22.1223 13.0651 22.5444 12.8047 22.8047C12.5444 23.0651 12.1223 23.0651 11.8619 22.8047L7.19526 18.1381C7.1288 18.0716 7.0793 17.9946 7.04677 17.9124C7.01659 17.8364 7 17.7534 7 17.6666Z" fill="white"/>
<path d="M7.05454 17.4021L7.9723 17.7993L7.9726 17.7986L7.05454 17.4021ZM7.16689 17.2254L7.9159 17.888L7.91634 17.8875L7.16689 17.2254ZM7.19838 17.1921L7.90085 17.9039L7.90549 17.8992L7.19838 17.1921ZM11.8619 12.5286L11.1548 11.8215L11.1548 11.8215L11.8619 12.5286ZM12.8047 12.5286L12.0976 13.2357L12.0976 13.2357L12.8047 12.5286ZM12.8047 13.4714L12.0976 12.7643L12.0976 12.7643L12.8047 13.4714ZM9.27616 17L8.56906 16.2929C8.28306 16.5789 8.1975 17.009 8.35228 17.3827C8.50706 17.7563 8.8717 18 9.27616 18V17ZM9.27612 18.3333V17.3333C8.87166 17.3333 8.50702 17.577 8.35224 17.9506C8.19746 18.3243 8.28302 18.7544 8.56902 19.0404L9.27612 18.3333ZM12.8047 21.8619L12.0976 22.569L12.0976 22.569L12.8047 21.8619ZM12.8047 22.8047L12.0976 22.0976L12.0976 22.0976L12.8047 22.8047ZM11.8619 22.8047L12.569 22.0976L12.569 22.0976L11.8619 22.8047ZM7.19526 18.1381L7.90237 17.431L7.90236 17.431L7.19526 18.1381ZM7.04677 17.9124L7.97656 17.5443L7.97626 17.5436L7.04677 17.9124ZM17 32.5C25.5604 32.5 32.5 25.5604 32.5 17H30.5C30.5 24.4558 24.4558 30.5 17 30.5V32.5ZM1.5 17C1.5 25.5604 8.43959 32.5 17 32.5V30.5C9.54416 30.5 3.5 24.4558 3.5 17H1.5ZM17 1.5C8.43959 1.5 1.5 8.43959 1.5 17H3.5C3.5 9.54416 9.54416 3.5 17 3.5V1.5ZM32.5 17C32.5 8.43959 25.5604 1.5 17 1.5V3.5C24.4558 3.5 30.5 9.54416 30.5 17H32.5ZM17 34C26.3888 34 34 26.3888 34 17H32C32 25.2843 25.2843 32 17 32V34ZM0 17C0 26.3888 7.61116 34 17 34V32C8.71573 32 2 25.2843 2 17H0ZM17 0C7.61116 0 0 7.61116 0 17H2C2 8.71573 8.71573 2 17 2V0ZM34 17C34 7.61116 26.3888 0 17 0V2C25.2843 2 32 8.71573 32 17H34ZM6.13679 17.005C6.04845 17.2091 6 17.4335 6 17.6666H8C8 17.7118 7.99045 17.7573 7.9723 17.7993L6.13679 17.005ZM6.41788 16.5629C6.2991 16.6971 6.20502 16.847 6.13649 17.0057L7.9726 17.7986C7.95856 17.8311 7.93937 17.8614 7.9159 17.888L6.41788 16.5629ZM6.49593 16.4804C6.46889 16.5071 6.44271 16.5348 6.41745 16.5634L7.91634 17.8875C7.91131 17.8932 7.90614 17.8986 7.90084 17.9039L6.49593 16.4804ZM11.1548 11.8215L6.49128 16.485L7.90549 17.8992L12.569 13.2357L11.1548 11.8215ZM13.5118 11.8215C12.861 11.1706 11.8057 11.1706 11.1548 11.8215L12.569 13.2357C12.4389 13.3659 12.2278 13.3659 12.0976 13.2357L13.5118 11.8215ZM13.5118 14.1785C14.1627 13.5276 14.1627 12.4724 13.5118 11.8215L12.0976 13.2357C11.9675 13.1055 11.9675 12.8945 12.0976 12.7643L13.5118 14.1785ZM9.98327 17.7071L13.5118 14.1785L12.0976 12.7643L8.56906 16.2929L9.98327 17.7071ZM27 16H9.27616V18H27V16ZM28.6667 17.6666C28.6667 16.7462 27.9205 16 27 16V18C26.8159 18 26.6667 17.8507 26.6667 17.6666H28.6667ZM27 19.3333C27.9205 19.3333 28.6667 18.5871 28.6667 17.6666H26.6667C26.6667 17.4825 26.8159 17.3333 27 17.3333V19.3333ZM9.27612 19.3333H27V17.3333H9.27612V19.3333ZM13.5118 21.1548L9.98323 17.6262L8.56902 19.0404L12.0976 22.569L13.5118 21.1548ZM13.5118 23.5118C14.1627 22.861 14.1627 21.8057 13.5118 21.1548L12.0976 22.569C11.9675 22.4389 11.9675 22.2278 12.0976 22.0976L13.5118 23.5118ZM11.1548 23.5118C11.8057 24.1627 12.861 24.1627 13.5118 23.5118L12.0976 22.0976C12.2278 21.9675 12.4389 21.9675 12.569 22.0976L11.1548 23.5118ZM6.48816 18.8452L11.1548 23.5118L12.569 22.0976L7.90237 17.431L6.48816 18.8452ZM6.11698 18.2805C6.19886 18.4874 6.3233 18.6803 6.48816 18.8452L7.90236 17.431C7.93429 17.4629 7.95974 17.5018 7.97656 17.5443L6.11698 18.2805ZM6 17.6666C6 17.8818 6.04128 18.0898 6.11728 18.2813L7.97626 17.5436C7.99189 17.583 8 17.6251 8 17.6666H6Z" fill="#3425E1" mask="url(#path-1-outside-1_1_1009)"/>
</svg>
