<svg width="12" height="55" viewBox="0 0 12 55" fill="none" xmlns="http://www.w3.org/2000/svg">
<path d="M4.00002 50.5H4.50002V50C4.50002 49.3802 4.20338 48.7879 3.97088 48.3236C3.96292 48.3077 3.95503 48.292 3.94724 48.2764C3.68273 47.7474 3.50003 47.359 3.50003 47V46.882L3.44724 46.7764C2.9831 45.8481 2.74389 44.6698 2.49032 43.4019L2.48233 43.362C2.24293 42.1648 1.98736 40.8868 1.47756 39.8379C0.501405 34.9147 0.5 29.9879 0.5 26C0.5 21.0601 1.48902 16.14 3.44724 12.2236L3.47179 12.1745L3.4851 12.1213C4.46528 8.20056 6.39527 3.40609 10.1682 0.500193C10.3569 0.500814 10.5301 0.503423 10.6831 0.514355C10.7125 0.516455 10.7398 0.518795 10.765 0.521309C10.7317 0.558821 10.6924 0.600472 10.6465 0.64645L10.6172 0.675711L10.5932 0.709385C5.53372 7.7926 2.50003 16.8939 2.50003 26V26.0177C2.50003 30.9915 2.50003 35.0241 3.50021 40.0504C3.51648 42.1386 4.53999 44.1981 5.50376 46.1255C5.52031 46.4133 5.59001 46.7303 5.67389 47.0378C5.7713 47.395 5.89994 47.7809 6.02309 48.1503L6.02567 48.1581C6.15174 48.5363 6.27198 48.8975 6.36138 49.2253C6.45261 49.5598 6.50001 49.8194 6.50001 50H7.00001H7.50001C7.50001 48.1413 8.44102 46.2661 9.35357 45.3535C9.57791 45.1292 9.78107 44.9831 9.94583 44.9062C10.1131 44.8281 10.1937 44.8416 10.2169 44.8493C10.2279 44.853 10.2941 44.8756 10.3658 45.0498C10.4406 45.2315 10.5 45.5338 10.5 46C10.5 47.3904 10.0394 48.5553 9.53578 49.8143L9.52362 49.8447C9.03063 51.0771 8.50002 52.4035 8.50002 54C8.50002 54.1635 8.46081 54.236 8.43347 54.2711C8.40276 54.3106 8.34323 54.3585 8.2169 54.4006C7.95025 54.4895 7.57026 54.4992 7.08121 54.4999C4.24885 53.5503 2.37167 52.6101 0.517731 50.8083C0.569105 50.5242 0.730379 50.2267 0.978557 49.9786C1.28339 49.6737 1.66262 49.5 2.00001 49.5C2.28017 49.5 2.40171 49.6088 2.64646 49.8535L2.65955 49.8666C2.91464 50.1219 3.29237 50.5 4.00002 50.5Z" fill="white" stroke="#3425E1"/>
</svg>
