<svg width="32" height="32" viewBox="0 0 32 32" fill="none" xmlns="http://www.w3.org/2000/svg">
<path fill-rule="evenodd" clip-rule="evenodd" d="M16 32C24.8366 32 32 24.8366 32 16C32 7.16344 24.8366 0 16 0C7.16344 0 0 7.16344 0 16C0 24.8366 7.16344 32 16 32Z" fill="#1A1A1A"/>
<path fill-rule="evenodd" clip-rule="evenodd" d="M16.5272 24.9017H16.5232C14.9309 24.9012 13.3663 24.5017 11.9767 23.7437L6.93311 25.0667L8.28285 20.1366C7.45026 18.6937 7.01216 17.057 7.01287 15.3802C7.01496 10.1345 11.283 5.8667 16.5271 5.8667C19.0722 5.8678 21.461 6.85861 23.2572 8.65697C25.0535 10.4552 26.0422 12.8456 26.0412 15.3877C26.0391 20.6322 21.7728 24.8996 16.5272 24.9017ZM12.2107 22.0213L12.4994 22.1927C13.7135 22.9132 15.1053 23.2944 16.5243 23.295H16.5275C20.886 23.295 24.4334 19.7475 24.4351 15.3872C24.4359 13.2742 23.6142 11.2875 22.1212 9.79273C20.6282 8.298 18.6427 7.47443 16.5306 7.4737C12.1687 7.4737 8.62126 11.0208 8.61953 15.3808C8.61892 16.875 9.03699 18.3302 9.82857 19.5892L10.0166 19.8884L9.21774 22.8064L12.2107 22.0213ZM21.3205 17.65C21.2611 17.5509 21.1026 17.4914 20.8649 17.3724C20.6272 17.2534 19.4584 16.6783 19.2404 16.5989C19.0226 16.5196 18.864 16.48 18.7056 16.7179C18.5471 16.9559 18.0915 17.4914 17.9529 17.65C17.8142 17.8087 17.6755 17.8286 17.4379 17.7095C17.2001 17.5906 16.4342 17.3395 15.5261 16.5296C14.8194 15.8992 14.3423 15.1208 14.2036 14.8828C14.065 14.6448 14.1889 14.5162 14.3079 14.3976C14.4148 14.2911 14.5456 14.1199 14.6645 13.9811C14.7833 13.8424 14.8229 13.7431 14.9022 13.5846C14.9814 13.4259 14.9418 13.2871 14.8824 13.1681C14.8229 13.0491 14.3475 11.879 14.1494 11.403C13.9564 10.9394 13.7605 11.0022 13.6145 10.9949C13.476 10.9879 13.3174 10.9865 13.1589 10.9865C13.0004 10.9865 12.7429 11.046 12.525 11.284C12.3071 11.522 11.693 12.0971 11.693 13.2671C11.693 14.4373 12.5448 15.5677 12.6637 15.7263C12.7825 15.885 14.3399 18.2862 16.7247 19.3159C17.2919 19.5608 17.7346 19.7071 18.0799 19.8166C18.6494 19.9976 19.1677 19.9721 19.5772 19.9108C20.034 19.8426 20.9837 19.3358 21.1819 18.7805C21.3799 18.2251 21.3799 17.7492 21.3205 17.65Z" fill="#858585"/>
</svg>
