<svg width="267" height="245" viewBox="0 0 267 245" fill="none" xmlns="http://www.w3.org/2000/svg">
<path d="M36.5997 32.1998C37.0076 32.1998 37.4373 32.0587 37.8358 31.8595C38.241 31.6569 38.6497 31.3762 39.0251 31.0544C39.7601 30.4244 40.4398 29.5735 40.679 28.7421C41.1207 27.3015 40.8987 25.6499 40.0186 24.3269C39.246 23.1155 38.0021 22.2998 36.5997 22.2998C36.068 22.2998 35.6162 22.3523 35.1777 22.5402C34.7429 22.7266 34.365 23.0274 33.9461 23.4463C33.2003 24.192 32.6716 25.0139 32.4183 25.9144C32.1647 26.8162 32.1964 27.7653 32.522 28.7479C32.7627 29.5774 33.4409 30.4259 34.1743 31.0544C34.5496 31.3762 34.9584 31.6569 35.3636 31.8595C35.762 32.0587 36.1917 32.1998 36.5997 32.1998Z" fill="white" stroke="#3425E1"/>
<path d="M84.5998 32.0998H84.6133C84.9039 32.0998 85.1654 32.0999 85.5258 31.9846C86.5015 31.7865 87.4348 30.9447 88.0991 30.0632C88.4453 29.6038 88.7411 29.1044 88.952 28.6196C89.16 28.1417 89.2998 27.6452 89.2998 27.1998C89.2998 26.8621 89.1949 26.4592 89.0544 26.0705C88.9099 25.6705 88.711 25.2407 88.4882 24.8344C88.2657 24.4286 88.0133 24.0354 87.7579 23.7119C87.5179 23.408 87.2353 23.1132 86.9371 22.9595C86.1765 22.527 85.3955 22.2998 84.5998 22.2998C83.5331 22.2998 82.5003 22.7808 81.6206 23.8734C81.0355 24.5078 80.6698 24.9476 80.4816 25.4492C80.2994 25.9352 80.2996 26.4447 80.2998 27.1266C80.2998 27.1508 80.2998 27.1752 80.2998 27.1998C80.2998 29.9009 82.0541 32.0998 84.5998 32.0998Z" fill="white" stroke="#3425E1"/>
<path d="M63.8943 30.4069L63.9006 30.3988L63.9065 30.3905C64.4561 29.6212 65.1148 28.2989 64.8962 26.4415L64.8964 26.4415L64.8946 26.4292C64.5674 24.1382 62.9006 22.3999 60.6997 22.3999C59.7775 22.3999 58.8805 22.7437 58.1155 23.2884C57.0909 23.9746 56.3127 25.2117 56.2011 26.6616L56.2011 26.6616L56.2009 26.6643C56.0925 28.1823 56.5261 29.6084 57.4092 30.7122L57.4461 30.7583L57.4927 30.7946C58.4167 31.5132 59.4283 32.0999 60.5997 32.0999C61.8745 32.0999 63.113 31.4114 63.8943 30.4069Z" fill="white" stroke="#3425E1"/>
<path d="M256.546 236.768L256.576 236.753C256.645 236.718 256.697 236.684 256.772 236.634L256.777 236.631C256.85 236.582 256.945 236.519 257.069 236.456C257.681 236.126 258.145 235.783 258.516 235.334C258.888 234.884 259.189 234.301 259.432 233.461C259.924 231.756 260.15 229.095 260.3 224.584C260.3 224.584 260.3 224.583 260.3 224.583L260.8 224.6C261.057 216.542 261.094 202.018 261.162 175.045C261.173 170.551 261.185 165.712 261.2 160.5L256.546 236.768ZM256.546 236.768L256.518 236.787C256.253 236.968 256.06 237.098 255.684 237.219C255.289 237.346 254.679 237.465 253.591 237.569C251.417 237.778 247.454 237.919 239.756 238.012C224.373 238.2 194.152 238.2 133.7 238.2H85.9998C47.5391 238.2 28.3346 238.2 18.5528 237.651C13.6415 237.375 11.1868 236.963 9.86914 236.386C9.23345 236.107 8.88827 235.8 8.65516 235.466C8.40892 235.113 8.26515 234.702 8.07302 234.139L8.06211 234.107L8.04698 234.076C8.02053 234.023 8.0077 233.99 7.99012 233.944C7.98271 233.924 7.97447 233.903 7.964 233.877C7.93482 233.804 7.89216 233.709 7.81189 233.611M256.546 236.768L260.7 160.499C260.7 160.499 260.7 160.499 260.7 160.499L260.501 52.8995L133.9 52.7999H133.899H133.81H133.719H133.629H133.539H133.449H133.359H133.268H133.178H133.088H132.998H132.908H132.818H132.728H132.638H132.548H132.458H132.368H132.278H132.188H132.098H132.008H131.918H131.828H131.738H131.648H131.558H131.469H131.379H131.289H131.199H131.109H131.019H130.93H130.84H130.75H130.66H130.571H130.481H130.391H130.302H130.212H130.122H130.033H129.943H129.853H129.764H129.674H129.585H129.495H129.406H129.316H129.227H129.137H129.048H128.958H128.869H128.779H128.69H128.601H128.511H128.422H128.333H128.243H128.154H128.065H127.975H127.886H127.797H127.708H127.618H127.529H127.44H127.351H127.262H127.172H127.083H126.994H126.905H126.816H126.727H126.638H126.549H126.46H126.371H126.282H126.193H126.104H126.015H125.926H125.837H125.748H125.659H125.57H125.481H125.393H125.304H125.215H125.126H125.037H124.949H124.86H124.771H124.683H124.594H124.505H124.417H124.328H124.239H124.151H124.062H123.973H123.885H123.796H123.708H123.619H123.531H123.442H123.354H123.265H123.177H123.089H123H122.912H122.823H122.735H122.647H122.558H122.47H122.382H122.294H122.205H122.117H122.029H121.941H121.852H121.764H121.676H121.588H121.5H121.412H121.324H121.236H121.148H121.06H120.972H120.884H120.796H120.708H120.62H120.532H120.444H120.356H120.268H120.18H120.092H120.004H119.917H119.829H119.741H119.653H119.566H119.478H119.39H119.302H119.215H119.127H119.039H118.952H118.864H118.777H118.689H118.602H118.514H118.426H118.339H118.252H118.164H118.077H117.989H117.902H117.814H117.727H117.64H117.552H117.465H117.378H117.29H117.203H117.116H117.029H116.941H116.854H116.767H116.68H116.593H116.506H116.419H116.331H116.244H116.157H116.07H115.983H115.896H115.809H115.722H115.635H115.549H115.462H115.375H115.288H115.201H115.114H115.027H114.941H114.854H114.767H114.68H114.594H114.507H114.42H114.334H114.247H114.16H114.074H113.987H113.901H113.814H113.727H113.641H113.554H113.468H113.381H113.295H113.209H113.122H113.036H112.949H112.863H112.777H112.691H112.604H112.518H112.432H112.345H112.259H112.173H112.087H112.001H111.915H111.829H111.742H111.656H111.57H111.484H111.398H111.312H111.226H111.14H111.054H110.968H110.883H110.797H110.711H110.625H110.539H110.453H110.368H110.282H110.196H110.11H110.025H109.939H109.853H109.768H109.682H109.596H109.511H109.425H109.34H109.254H109.169H109.083H108.998H108.912H108.827H108.742H108.656H108.571H108.485H108.4H108.315H108.23H108.144H108.059H107.974H107.889H107.803H107.718H107.633H107.548H107.463H107.378H107.293H107.208H107.123H107.038H106.953H106.868H106.783H106.698H106.613H106.528H106.443H106.359H106.274H106.189H106.104H106.019H105.935H105.85H105.765H105.681H105.596H105.511H105.427H105.342H105.258H105.173H105.089H105.004H104.92H104.835H104.751H104.666H104.582H104.498H104.413H104.329H104.245H104.16H104.076H103.992H103.908H103.823H103.739H103.655H103.571H103.487H103.403H103.319H103.235H103.151H103.067H102.983H102.899H102.815H102.731H102.647H102.563H102.479H102.395H102.311H102.228H102.144H102.06H101.976H101.893H101.809H101.725H101.642H101.558H101.475H101.391H101.307H101.224H101.14H101.057H100.973H100.89H100.807H100.723H100.64H100.557H100.473H100.39H100.307H100.223H100.14H100.057H99.9737H99.8906H99.8074H99.7243H99.6412H99.5581H99.4751H99.392H99.309H99.226H99.1431H99.0601H98.9772H98.8943H98.8114H98.7286H98.6458H98.563H98.4802H98.3974H98.3147H98.232H98.1493H98.0666H97.984H97.9013H97.8187H97.7362H97.6536H97.5711H97.4886H97.4061H97.3236H97.2412H97.1588H97.0764H96.994H96.9117H96.8293H96.747H96.6648H96.5825H96.5003H96.4181H96.3359H96.2538H96.1716H96.0895H96.0074H95.9254H95.8433H95.7613H95.6793H95.5973H95.5154H95.4335H95.3516H95.2697H95.1879H95.106H95.0242H94.9424H94.8607H94.779H94.6972H94.6156H94.5339H94.4523H94.3707H94.2891H94.2075H94.126H94.0444H93.963H93.8815H93.8H93.7186H93.6372H93.5558H93.4745H93.3932H93.3119H93.2306H93.1494H93.0681H92.9869H92.9057H92.8246H92.7435H92.6624H92.5813H92.5002H92.4192H92.3382H92.2572H92.1762H92.0953H92.0144H91.9335H91.8527H91.7718H91.691H91.6102H91.5295H91.4487H91.368H91.2873H91.2067H91.126H91.0454H90.9649H90.8843H90.8038H90.7232H90.6428H90.5623H90.4819H90.4014H90.3211H90.2407H90.1604H90.08H89.9998C78.2504 52.7999 67.326 52.8249 57.501 52.8499C56.3539 52.8528 55.2217 52.8557 54.1049 52.8586C45.6579 52.8804 38.0932 52.8999 31.601 52.8999M31.601 52.8999C31.6006 52.8999 31.6002 52.8999 31.5998 52.8999V52.3999L31.6019 52.8999C31.6016 52.8999 31.6013 52.8999 31.601 52.8999ZM31.601 52.8999C19.6954 52.9499 13.7575 52.975 10.7056 53.0871C9.16877 53.1435 8.40827 53.2213 7.99417 53.3218C7.79724 53.3695 7.70714 53.4162 7.65744 53.4498C7.60479 53.4854 7.56717 53.525 7.47605 53.6292L7.47348 53.6321C7.37099 53.7474 7.31927 53.8079 7.27282 53.8917C7.22729 53.9739 7.17531 54.1014 7.12511 54.3413C7.02122 54.838 6.94339 55.7182 6.887 57.4536C6.7748 60.9068 6.74978 67.5963 6.69976 81.0018L6.69976 81.0029C6.59977 97.7011 6.59977 119.799 6.59977 143.1C6.59977 187.303 6.59978 209.397 6.76221 220.743C6.84351 226.421 6.96539 229.386 7.1454 231.078C7.23512 231.922 7.33735 232.428 7.44835 232.787C7.5508 233.119 7.66433 233.338 7.81189 233.611M7.81189 233.611C7.79427 233.589 7.77483 233.568 7.75332 233.546L7.39976 233.9L7.83941 233.662C7.83011 233.645 7.82093 233.628 7.81189 233.611ZM264.663 10.1106L264.662 10.1087C263.419 7.10593 260.642 4.01614 257.937 2.55967L257.93 2.55608L257.923 2.55269L255.923 1.55269L255.818 1.5L255.7 1.4999L134.4 1.3999H134.4H134.287H134.174H134.061H133.948H133.835H133.722H133.61H133.497H133.385H133.272H133.16H133.048H132.935H132.823H132.711H132.599H132.487H132.375H132.263H132.151H132.04H131.928H131.816H131.705H131.593H131.482H131.371H131.259H131.148H131.037H130.926H130.815H130.704H130.593H130.482H130.372H130.261H130.15H130.04H129.929H129.819H129.708H129.598H129.488H129.378H129.268H129.158H129.048H128.938H128.828H128.718H128.609H128.499H128.389H128.28H128.171H128.061H127.952H127.843H127.733H127.624H127.515H127.406H127.297H127.189H127.08H126.971H126.862H126.754H126.645H126.537H126.429H126.32H126.212H126.104H125.996H125.888H125.78H125.672H125.564H125.456H125.348H125.241H125.133H125.025H124.918H124.811H124.703H124.596H124.489H124.382H124.274H124.167H124.06H123.954H123.847H123.74H123.633H123.527H123.42H123.314H123.207H123.101H122.994H122.888H122.782H122.676H122.57H122.464H122.358H122.252H122.146H122.041H121.935H121.829H121.724H121.618H121.513H121.407H121.302H121.197H121.092H120.987H120.882H120.777H120.672H120.567H120.462H120.358H120.253H120.148H120.044H119.939H119.835H119.731H119.626H119.522H119.418H119.314H119.21H119.106H119.002H118.898H118.795H118.691H118.587H118.484H118.38H118.277H118.174H118.07H117.967H117.864H117.761H117.658H117.555H117.452H117.349H117.246H117.143H117.041H116.938H116.836H116.733H116.631H116.528H116.426H116.324H116.222H116.12H116.018H115.916H115.814H115.712H115.61H115.508H115.407H115.305H115.204H115.102H115.001H114.899H114.798H114.697H114.596H114.495H114.394H114.293H114.192H114.091H113.99H113.89H113.789H113.688H113.588H113.487H113.387H113.287H113.186H113.086H112.986H112.886H112.786H112.686H112.586H112.486H112.387H112.287H112.187H112.088H111.988H111.889H111.789H111.69H111.591H111.492H111.392H111.293H111.194H111.095H110.997H110.898H110.799H110.7H110.602H110.503H110.405H110.306H110.208H110.109H110.011H109.913H109.815H109.717H109.619H109.521H109.423H109.325H109.227H109.13H109.032H108.934H108.837H108.739H108.642H108.545H108.447H108.35H108.253H108.156H108.059H107.962H107.865H107.768H107.671H107.575H107.478H107.382H107.285H107.189H107.092H106.996H106.9H106.803H106.707H106.611H106.515H106.419H106.323H106.227H106.132H106.036H105.94H105.845H105.749H105.654H105.558H105.463H105.367H105.272H105.177H105.082H104.987H104.892H104.797H104.702H104.607H104.513H104.418H104.323H104.229H104.134H104.04H103.945H103.851H103.757H103.663H103.569H103.474H103.38H103.286H103.193H103.099H103.005H102.911H102.818H102.724H102.631H102.537H102.444H102.35H102.257H102.164H102.071H101.978H101.885H101.792H101.699H101.606H101.513H101.42H101.328H101.235H101.142H101.05H100.958H100.865H100.773H100.681H100.588H100.496H100.404H100.312H100.22H100.128H100.037H99.9449H99.8532H99.7615H99.6699H99.5784H99.4869H99.3955H99.3042H99.2129H99.1217H99.0305H98.9394H98.8484H98.7574H98.6665H98.5756H98.4848H98.3941H98.3034H98.2128H98.1222H98.0317H97.9413H97.8509H97.7606H97.6703H97.5802H97.49H97.3999H97.3099H97.22H97.1301H97.0402H96.9504H96.8607H96.771H96.6814H96.5919H96.5024H96.413H96.3236H96.2343H96.1451H96.0559H95.9668H95.8777H95.7887H95.6998H95.6109H95.5221H95.4333H95.3446H95.2559H95.1673H95.0788H94.9903H94.9019H94.8136H94.7253H94.6371H94.5489H94.4608H94.3727H94.2847H94.1968H94.1089H94.0211H93.9333H93.8456H93.758H93.6704H93.5829H93.4954H93.408H93.3207H93.2334H93.1462H93.059H92.9719H92.8848H92.7978H92.7109H92.624H92.5372H92.4505H92.3638H92.2771H92.1905H92.104H92.0176H91.9312H91.8448H91.7585H91.6723H91.5861H91.5H91.414H91.328H91.242H91.1562H91.0704H90.9846H90.8989H90.8133H90.7277H90.6422H90.5567H90.4713H90.3859H90.3006H90.2154H90.1302H90.0451H89.9601H89.8751H89.7901H89.7052H89.6204H89.5357H89.451H89.3663H89.2817H89.1972H89.1127H89.0283H88.9439H88.8596H88.7754H88.6912H88.6071H88.523H88.439H88.355H88.2712H88.1873H88.1035H88.0198H87.9362H87.8526H87.769H87.6855H87.6021H87.5187H87.4354H87.3522H87.269H87.1858H87.1027H87.0197H86.9367H86.8538H86.771H86.6882H86.6054H86.5228H86.4401H86.3576H86.2751H86.1926H86.1102H86.0279H85.9456H85.8634H85.7812H85.6991H85.6171H85.5351H85.4532H85.3713H85.2895H85.2077H85.126H85.0444H84.9628H84.8812H84.7998C61.0999 1.3999 43.1482 1.4249 30.8712 1.51242C24.733 1.55617 20.0108 1.61557 16.6971 1.69536C15.0406 1.73525 13.7327 1.78031 12.7744 1.83127C11.8389 1.88102 11.1852 1.93817 10.8785 2.01483L10.8582 2.0199L10.8384 2.02665C6.25277 3.58994 2.73787 7.84692 1.80799 12.9096L1.80638 12.9183L1.80509 12.9272C1.73684 13.3912 1.68388 14.7691 1.63914 16.8572C1.59395 18.9658 1.55682 21.8417 1.52635 25.3393C1.46539 32.3349 1.43102 41.8238 1.41227 52.649C1.38532 68.2072 1.39064 86.5282 1.39578 104.179C1.39779 111.091 1.39976 117.9 1.39976 124.4L1.39977 124.4L1.49976 232.6L1.49986 232.698L1.53699 232.789L2.43699 234.989L2.43776 234.991C3.68029 237.994 6.45784 241.084 9.16271 242.54L9.16938 242.544L9.17616 242.547L11.1762 243.547L11.2817 243.6H11.3998H255.7H255.818L255.923 243.547L257.923 242.547L257.93 242.544L257.937 242.54C260.636 241.087 263.418 238.099 264.663 234.987C264.664 234.987 264.664 234.986 264.664 234.986L265.563 232.789L265.6 232.698V232.6V12.4999V12.4016L265.563 12.3106L264.663 10.1106ZM256.409 8.30677L256.409 8.30687L256.418 8.31302C257.498 9.04927 258.258 9.70161 258.814 10.5112C259.368 11.3174 259.746 12.3169 259.994 13.7834C260.479 16.6466 260.453 21.1316 260.405 29.0934L260.4 29.9943L260.4 29.997L260.205 47.1999H6.79695L6.69977 29.9971L6.69973 29.994C6.59941 21.5171 6.5523 16.8017 7.0553 13.8206C7.30386 12.3474 7.68178 11.3369 8.23152 10.5216C8.78273 9.70411 9.53092 9.04615 10.5836 8.31151C10.8479 8.13132 11.0401 8.00131 11.4152 7.88083C11.8108 7.75375 12.4217 7.63477 13.51 7.53043C15.6857 7.32183 19.6521 7.18116 27.3559 7.08737C42.7519 6.89991 72.9974 6.8999 133.5 6.8999C194.052 6.8999 224.323 6.89991 239.719 7.08737C247.423 7.18116 251.383 7.32183 253.546 7.53041C254.628 7.63477 255.23 7.75366 255.614 7.87986C255.978 7.99908 256.157 8.12676 256.409 8.30677Z" fill="white" stroke="#3425E1"/>
<path d="M159.382 124.268L159.382 124.268L159.379 124.256C159.007 123.018 157.992 122.5 157.1 122.5C156.693 122.5 156.029 122.638 155.509 123.288L155.476 123.329L155.453 123.376C155.029 124.223 153.718 127.665 151.819 134.363L151.819 134.363L151.816 134.374L145.505 158.691L143.194 149.616C143.186 149.547 143.168 149.49 143.152 149.449C143.134 149.4 143.111 149.355 143.1 149.332V149.328L143.079 149.259C142.884 148.593 142.646 147.744 142.335 146.632C141.843 144.872 141.167 142.453 140.181 139.063C140.18 139.062 140.18 139.061 140.18 139.06L139.481 136.565L139.481 136.564C137.634 130.024 136.575 126.591 135.824 124.794C135.452 123.906 135.127 123.345 134.768 123.015C134.36 122.64 133.953 122.6 133.6 122.6C133.236 122.6 132.828 122.65 132.417 123.029C132.052 123.366 131.718 123.933 131.339 124.83C130.574 126.641 129.516 130.074 127.719 136.563L127.02 138.96L127.02 138.96L127.017 138.968C125.678 143.881 124.817 146.796 124.293 148.574C124.231 148.784 124.173 148.979 124.12 149.159L124.118 149.167L124.116 149.175L121.7 158.504L115.484 134.475L115.482 134.468L115.48 134.461C113.482 127.568 112.171 124.024 111.747 123.176L111.711 123.104L111.653 123.046C111.233 122.626 110.589 122.4 109.8 122.4C109.255 122.4 108.803 122.505 108.468 122.825C108.219 123.024 107.912 123.275 107.757 123.77C107.612 124.234 107.616 124.861 107.755 125.798C108.036 127.687 108.922 131.147 110.819 137.836L110.819 137.836L110.82 137.84L112.019 141.937C114.618 151.234 116.419 157.663 117.67 161.904C118.296 164.024 118.786 165.605 119.171 166.726C119.363 167.287 119.531 167.739 119.679 168.09C119.823 168.431 119.96 168.707 120.095 168.894L120.167 168.993L120.276 169.047L120.676 169.247C121.127 169.472 121.604 169.6 122 169.6C122.391 169.6 123.034 169.473 123.553 168.953L123.619 168.888L123.657 168.803C123.699 168.708 123.773 168.467 123.862 168.164C123.958 167.839 124.087 167.389 124.243 166.836C124.555 165.728 124.979 164.196 125.476 162.384C126.47 158.759 127.757 154.012 129.032 149.293C130.308 144.574 131.57 139.883 132.514 136.372C132.952 134.742 133.321 133.366 133.592 132.36L140.116 157.525L140.116 157.525L140.118 157.534C141.818 163.632 143.124 167.657 143.536 168.686L143.574 168.781L143.646 168.853C144.03 169.237 144.553 169.5 145.2 169.5C145.686 169.5 146.162 169.378 146.623 169.147C146.633 169.142 146.642 169.138 146.652 169.133C146.842 169.038 147.073 168.923 147.295 168.664C147.512 168.412 147.699 168.049 147.916 167.494C148.351 166.38 148.983 164.278 150.18 160.139L150.18 160.139L150.182 160.132C150.486 159.024 150.781 157.95 151.067 156.909C154.446 144.608 156.564 136.898 157.821 132.089C158.502 129.482 158.934 127.718 159.176 126.533C159.297 125.941 159.373 125.483 159.408 125.131C159.442 124.793 159.445 124.5 159.382 124.268Z" fill="white" stroke="#3425E1"/>
<path d="M91.182 124.268L91.1821 124.268L91.1785 124.256C90.8071 123.018 89.7914 122.5 88.8996 122.5C88.4927 122.5 87.829 122.638 87.3092 123.288L87.2761 123.329L87.2524 123.376C86.829 124.223 85.5183 127.665 83.6186 134.363L83.6185 134.363L83.6156 134.374L77.3043 158.691L74.9943 149.616C74.9855 149.547 74.9674 149.49 74.9522 149.449C74.9336 149.4 74.911 149.355 74.8996 149.332V149.328L74.8793 149.259C74.6835 148.593 74.446 147.744 74.1351 146.632C73.6429 144.872 72.9668 142.453 71.9804 139.063C71.9802 139.062 71.9799 139.061 71.9797 139.06L71.2811 136.565L71.2808 136.564C69.4335 130.024 68.3751 126.591 67.6234 124.794C67.2514 123.906 66.9269 123.345 66.5678 123.015C66.1601 122.64 65.753 122.6 65.3996 122.6C65.0362 122.6 64.6278 122.65 64.2169 123.029C63.852 123.366 63.5182 123.933 63.139 124.83C62.374 126.641 61.3157 130.074 59.5187 136.563L58.8196 138.96L58.8195 138.96L58.8172 138.968C57.4775 143.881 56.6171 146.796 56.0925 148.573C56.0304 148.784 55.9729 148.979 55.9199 149.159L55.9176 149.167L55.9156 149.175L53.4998 158.504L47.2837 134.475L47.2819 134.468L47.2798 134.461C45.2819 127.568 43.9705 124.024 43.5468 123.176L43.5105 123.104L43.4532 123.046C43.0328 122.626 42.3891 122.4 41.5996 122.4C41.0547 122.4 40.6024 122.505 40.2681 122.825C40.0188 123.024 39.7114 123.275 39.5567 123.77C39.4116 124.234 39.4158 124.861 39.555 125.798C39.8358 127.687 40.7216 131.147 42.6186 137.836L42.6186 137.836L42.6197 137.84L43.8189 141.937C46.418 151.234 48.2189 157.663 49.47 161.904C50.0955 164.024 50.5855 165.605 50.9704 166.726C51.1628 167.287 51.331 167.739 51.4787 168.09C51.6225 168.431 51.7594 168.707 51.8952 168.894L51.967 168.993L52.076 169.047L52.476 169.247C52.9267 169.472 53.4035 169.6 53.7996 169.6C54.1912 169.6 54.8339 169.473 55.3532 168.953L55.4188 168.888L55.4565 168.803C55.4986 168.708 55.5724 168.467 55.6619 168.164C55.758 167.839 55.8865 167.389 56.0426 166.836C56.3548 165.728 56.7786 164.196 57.2756 162.384C58.2696 158.759 59.5573 154.012 60.8323 149.293C62.1074 144.574 63.3699 139.883 64.3137 136.372C64.7518 134.742 65.1212 133.366 65.3913 132.36L71.9156 157.525L71.9155 157.525L71.918 157.534C73.6175 163.632 74.924 167.657 75.3354 168.686L75.3735 168.781L75.4461 168.853C75.8295 169.237 76.3531 169.5 76.9996 169.5C77.486 169.5 77.9621 169.378 78.4232 169.147C78.4326 169.142 78.4422 169.138 78.4518 169.133C78.6418 169.038 78.8731 168.923 79.0949 168.664C79.3113 168.412 79.4984 168.049 79.7153 167.494C80.1507 166.38 80.7831 164.278 81.9799 160.139L81.98 160.139L81.9818 160.132C82.2861 159.024 82.5811 157.95 82.8671 156.909C86.2459 144.608 88.3638 136.898 89.6209 132.089C90.3022 129.482 90.7334 127.718 90.9754 126.533C91.0963 125.941 91.1724 125.483 91.2078 125.131C91.2419 124.793 91.2451 124.5 91.182 124.268Z" fill="white" stroke="#3425E1"/>
<path d="M201.691 132.36L208.215 157.525L208.215 157.525L208.218 157.534C209.917 163.632 211.224 167.657 211.635 168.686L211.673 168.781L211.746 168.853C212.129 169.237 212.653 169.5 213.299 169.5C213.786 169.5 214.262 169.378 214.723 169.147C214.732 169.142 214.742 169.138 214.752 169.133C214.942 169.038 215.173 168.923 215.395 168.664C215.611 168.412 215.798 168.049 216.015 167.494C216.451 166.38 217.083 164.278 218.28 160.139L218.281 160.134L218.388 159.75C222.274 145.78 224.644 137.259 225.996 132.089C226.677 129.482 227.103 127.715 227.332 126.528C227.447 125.935 227.516 125.473 227.542 125.117C227.566 124.782 227.557 124.483 227.475 124.244C227.1 123.015 226.088 122.5 225.199 122.5C224.793 122.5 224.129 122.638 223.609 123.288L223.576 123.329L223.552 123.376C223.129 124.223 221.818 127.665 219.918 134.363L219.918 134.363L219.915 134.374L213.604 158.691L211.294 149.616C211.285 149.547 211.267 149.49 211.252 149.449C211.233 149.4 211.211 149.355 211.199 149.332V149.328L211.179 149.259C210.983 148.593 210.746 147.744 210.435 146.632C209.943 144.872 209.267 142.453 208.28 139.063C208.28 139.062 208.28 139.061 208.28 139.06L207.581 136.565L207.581 136.564C205.733 130.024 204.675 126.591 203.923 124.794C203.551 123.906 203.227 123.345 202.868 123.015C202.46 122.64 202.053 122.6 201.699 122.6C201.336 122.6 200.928 122.65 200.517 123.029C200.152 123.366 199.818 123.933 199.439 124.83C198.674 126.641 197.616 130.074 195.818 136.563L195.119 138.96L195.119 138.96L195.117 138.968C193.777 143.881 192.917 146.796 192.392 148.573C192.33 148.784 192.273 148.979 192.22 149.159L192.217 149.167L192.215 149.175L189.8 158.504L183.583 134.475L183.582 134.468L183.58 134.461C181.582 127.568 180.27 124.024 179.847 123.176L179.81 123.104L179.753 123.046C179.333 122.626 178.689 122.4 177.899 122.4C177.354 122.4 176.902 122.505 176.568 122.825C176.319 123.024 176.011 123.275 175.857 123.77C175.711 124.234 175.716 124.861 175.855 125.798C176.136 127.687 177.021 131.147 178.918 137.836L178.918 137.836L178.92 137.84L180.119 141.937C182.718 151.234 184.519 157.663 185.77 161.904C186.395 164.024 186.885 165.605 187.27 166.726C187.463 167.287 187.631 167.739 187.778 168.09C187.922 168.431 188.059 168.707 188.195 168.894L188.267 168.993L188.376 169.047L188.776 169.247C189.227 169.472 189.703 169.6 190.099 169.6C190.491 169.6 191.134 169.473 191.653 168.953L191.719 168.888L191.756 168.803C191.798 168.708 191.872 168.467 191.962 168.164C192.058 167.839 192.186 167.389 192.342 166.836C192.655 165.728 193.078 164.196 193.575 162.384C194.569 158.759 195.857 154.012 197.132 149.293C198.407 144.574 199.67 139.883 200.614 136.372C201.052 134.742 201.421 133.366 201.691 132.36Z" fill="white" stroke="#3425E1"/>
</svg>
